Código1_8/plab4_tb.vcd
$date
	Sun Aug 09 02:17:30 2020
$end
$version
	Icarus Verilog
$end
$timescale
	1ps
$end
$scope module testbench $end
$var wire 1 ! s8 $end
$var wire 1 " s7 $end
$var wire 1 # s6 $end
$var wire 1 $ s5 $end
$var wire 1 % s4 $end
$var wire 1 & s3 $end
$var wire 1 ' s2 $end
$var wire 1 ( s1 $end
$var reg 1 ) b1 $end
$var reg 1 * b2 $end
$var reg 1 + b3 $end
$var reg 1 , b4 $end
$scope module E1 $end
$var wire 1 ) A $end
$var wire 1 * B $end
$var wire 1 + C $end
$var wire 1 ( Y1 $end
$upscope $end
$scope module E2 $end
$var wire 1 ) A $end
$var wire 1 * B $end
$var wire 1 + C $end
$var wire 1 ' Y2 $end
$upscope $end
$scope module E3 $end
$var wire 1 ) A $end
$var wire 1 * B $end
$var wire 1 + C $end
$var wire 1 , D $end
$var wire 1 & Y3 $end
$upscope $end
$scope module E4 $end
$var wire 1 ) A $end
$var wire 1 * B $end
$var wire 1 + C $end
$var wire 1 , D $end
$var wire 1 % Y4 $end
$upscope $end
$scope module E5 $end
$var wire 1 ) A $end
$var wire 1 * B $end
$var wire 1 + C $end
$var wire 1 , D $end
$var wire 1 $ Y5 $end
$upscope $end
$scope module E6 $end
$var wire 1 ) A $end
$var wire 1 * B $end
$var wire 1 + C $end
$var wire 1 # Y6 $end
$var wire 1 - nelB $end
$upscope $end
$scope module E7 $end
$var wire 1 ) A $end
$var wire 1 * B $end
$var wire 1 + C $end
$var wire 1 , D $end
$var wire 1 " Y7 $end
$var wire 1 . nelC $end
$var wire 1 / w1 $end
$var wire 1 0 w2 $end
$upscope $end
$scope module E8 $end
$var wire 1 ) A $end
$var wire 1 * B $end
$var wire 1 + C $end
$var wire 1 ! Y8 $end
$var wire 1 1 c1 $end
$var wire 1 2 nA $end
$var wire 1 3 nC $end
$upscope $end
$upscope $end
$enddefinitions $end
#0
$dumpvars
x3
x2
x1
x0
x/
x.
x-
x,
x+
x*
x)
x(
x'
x&
x%
x$
x#
x"
x!
$end
#1
1(
1!
11
1#
1.
13
1'
1-
0/
12
0+
0*
0)
#2
0(
0$
0"
0!
00
01
0.
03
1+
#3
1(
x0
11
0#
1.
13
0'
0-
1"
1!
0+
1*
#4
0(
00
01
1#
0.
03
1+
#5
1(
1$
x0
1.
13
1'
1-
x"
0!
x/
02
0+
0*
1)
#6
1%
00
0.
03
1+
#7
x&
0(
x0
0#
1.
13
0'
0-
1"
1!
0+
1*
#8
x$
1(
00
1#
0.
03
1+
#9
1&
1(
1$
11
1.
13
1'
1-
0"
1!
0/
12
0,
0+
0*
0)
#10
0&
0%
0$
1"
10
1,
#11
1%
0(
0!
0"
01
00
0.
03
0,
1+
#12
1&
0%
1,
#13
0&
1(
11
0#
1.
13
0'
0-
1"
1!
0,
0+
1*
#14
1&
1%
10
1,
#15
0%
0(
01
00
1#
0.
03
0,
1+
#16
0&
1%
1,
#17
1$
1(
1.
13
1'
1-
0"
0!
02
0,
0+
0*
1)
#18
0%
1&
1"
1/
10
1,
#19
1%
0"
0/
00
0.
03
0,
1+
#20
0&
1"
1/
1,
#21
1&
0(
0/
0#
1.
13
0'
0-
1!
0,
0+
1*
#22
0&
1/
10
1,
#23
1(
0/
00
1#
0.
03
0,
1+
#24
1&
0$
1/
1,
